{
    "user_0": {

        "id": 0,
        "name": "",
        "surname": "",
        "n_rooms": 0,
        "email_addresses": [],
        "OTHER INFORMATION TO BE DECIDED": "",
        "timestamp": 0
    },

    "user_1": {
        
        "id": 1,
        "name": "",
        "surname": "",
        "n_rooms": 0,
        "email_addresses": [],
        "OTHER INFORMATION TO BE DECIDED": "",
        "timestamp": 0
    }
}